<?xml version="1.0" encoding="utf-8"?>
<!-- Generator: Adobe Illustrator 20.1.0, SVG Export Plug-In . SVG Version: 6.00 Build 0)  -->
<svg version="1.1" id="Layer_1" xmlns="http://www.w3.org/2000/svg" xmlns:xlink="http://www.w3.org/1999/xlink" x="0px" y="0px"
	 width="776.513px" height="151.448px" viewBox="0 0 776.513 151.448" enable-background="new 0 0 776.513 151.448"
	 xml:space="preserve">
<g>
	<path fill="#333333" d="M756.519,73.529c-0.001-0.812,0.018-1.629-0.062-2.436c-0.536-5.499-2.402-10.424-6.377-14.396
		c-2.605-2.6-5.686-4.318-9.373-4.781c-1.446-0.183-2.912-0.279-4.368-0.285c-6.34-0.031-12.679-0.013-19.017-0.014
		c-6.338,0-12.677-0.004-19.017,0.004c-1.136,0.001-2.286-0.049-3.405,0.104c-2.482,0.344-4.085,1.76-4.869,4.177
		c-0.587,1.811-0.429,3.548,0.342,5.215c0.785,1.708,2.069,2.934,4.038,3.12c1.455,0.135,2.918,0.176,4.379,0.177
		c12.027,0.014,24.055,0.005,36.082,0.01c1.299,0,2.607-0.035,3.896,0.084c2.636,0.241,4.548,1.656,5.759,3.966
		c1.166,2.228,1.488,4.616,0.996,7.092c-0.106,0.538-0.578,0.812-1.048,0.846c-1.294,0.095-2.594,0.127-3.893,0.128
		c-10.076,0.009-20.154,0.003-30.23,0.008c-1.463,0-2.926,0.016-4.386,0.064c-1.307,0.042-2.555,0.333-3.797,0.78
		c-4.514,1.618-7.729,4.692-10.017,8.805c-2.71,4.865-3.5,10.123-2.658,15.566c0.735,4.757,2.702,9.005,6.19,12.442
		c2.751,2.711,5.996,4.424,9.872,4.812c1.291,0.128,2.594,0.182,3.89,0.185c8.939,0.014,17.879,0.018,26.82-0.003
		c1.457-0.004,2.92-0.102,4.372-0.248c3.176-0.321,5.905-1.692,8.319-3.726c2.534-2.137,4.395-4.772,5.651-7.828
		c1.314-3.192,1.942-6.511,1.924-9.975C756.496,89.457,756.523,81.494,756.519,73.529z M745.611,98.835
		c-0.094,1.795-0.836,3.463-2.021,4.878c-1.198,1.435-2.673,2.357-4.584,2.445c-0.973,0.046-1.951,0.064-2.925,0.066
		c-8.778,0.004-17.555,0.006-26.335-0.005c-1.136,0-2.273-0.047-3.407-0.124c-0.992-0.067-1.873-0.445-2.687-1.039
		c-4.25-3.1-4.987-10.021-0.455-14.067c1.107-0.989,2.438-1.606,3.985-1.601c1.137,0.002,2.275-0.023,3.412-0.024
		c5.041-0.002,10.08,0,15.119,0c5.528,0,11.055-0.006,16.581,0.009c0.809,0.002,1.641,0.001,2.414,0.196
		c0.36,0.091,0.85,0.637,0.861,0.99C745.655,93.316,745.752,96.084,745.611,98.835z"/>
	<path fill="#333333" d="M212.55,94.233c1.46-0.043,2.921-0.085,4.381-0.086c10.235-0.007,20.47,0.011,30.703-0.021
		c1.616-0.004,3.264-0.05,4.84-0.365c5.448-1.085,9.407-4.331,12.054-9.083c3.684-6.613,4.146-13.558,1.517-20.676
		c-1.443-3.908-3.794-7.158-7.205-9.588c-3.305-2.354-7.022-3.124-11.045-3.085c-9.26,0.09-18.52,0.027-27.78,0.029
		c-0.488,0-0.975,0-1.463,0.005c-4.81,0.056-8.813,1.953-12.118,5.378c-1.82,1.887-3.201,4.078-4.186,6.516
		c-1.23,3.046-1.887,6.192-1.875,9.49c0.027,8.285,0.008,16.57,0.012,24.856c0.001,0.649-0.001,1.302,0.059,1.949
		c0.394,4.281,1.665,8.265,4.184,11.785c2.229,3.118,5.106,5.386,8.759,6.692c1.889,0.677,3.811,0.762,5.758,0.765
		c6.66,0.02,13.322,0.01,19.982,0.01c6.336,0,12.672,0.002,19.009-0.001c1.299-0.003,2.598-0.017,3.896-0.054
		c1.572-0.044,2.776-0.805,3.724-2.01c1.754-2.228,1.828-5.917,0.176-8.213c-1.002-1.392-2.342-2.258-4.059-2.387
		c-1.293-0.094-2.598-0.059-3.897-0.059c-11.859-0.004-23.719,0-35.578-0.002c-1.3-0.002-2.599-0.013-3.898-0.026
		c-2.921-0.026-4.884-1.587-6.198-4.025c-1.111-2.065-1.307-4.327-1.052-6.636C211.316,94.79,211.858,94.254,212.55,94.233z
		 M212.673,67.725c1.276-2.062,3.165-3.226,5.573-3.492c0.804-0.09,1.623-0.049,2.435-0.05c8.778-0.003,17.556-0.002,26.333-0.001
		c0.65,0,1.302-0.019,1.951,0.013c4.785,0.238,8.365,4.504,7.721,9.332c-0.169,1.264-0.577,2.55-1.141,3.696
		c-1.156,2.348-3.151,3.672-5.758,3.973c-0.963,0.114-1.946,0.066-2.922,0.066c-5.365,0.006-10.729,0.002-16.092,0.002
		c-5.202,0-10.404,0.01-15.604-0.008c-0.972-0.002-1.954-0.03-2.909-0.185c-0.425-0.07-0.927-0.389-0.936-0.977
		c-0.04-2.756-0.113-5.515-0.077-8.272C211.268,70.331,211.898,68.975,212.673,67.725z"/>
	<path fill="#333333" d="M523.99,51.356c-5.198,0.015-10.396,0-15.592,0c-4.873,0-9.746-0.001-14.619,0.006
		c-5.578,0.006-10.012,2.361-13.498,6.626c-1.662,2.034-2.806,4.349-3.705,6.809c-1.021,2.8-1.191,5.704-1.19,8.64
		c0.005,7.795-0.003,15.592,0.006,23.388c0.001,1.137,0.012,2.277,0.108,3.406c0.371,4.312,1.858,8.218,4.479,11.657
		c2.217,2.908,5.038,5.008,8.532,6.215c1.892,0.654,3.824,0.691,5.771,0.696c6.658,0.015,13.317,0.007,19.977,0.008
		c6.334,0,12.669,0.004,19.004-0.004c1.299,0,2.596-0.034,3.896-0.065c1.208-0.029,2.157-0.63,3.014-1.411
		c2.487-2.269,2.476-7.007,0.3-9.329c-1.038-1.109-2.299-1.803-3.83-1.876c-1.298-0.061-2.597-0.038-3.897-0.038
		c-11.857-0.002-23.714,0-35.571-0.004c-1.298,0-2.598-0.019-3.896-0.028c-2.308-0.014-4.027-1.14-5.344-2.923
		c-1.083-1.468-1.705-3.13-1.715-4.98c-0.021-3.84-0.519-4.055,3.92-4.01c2.112,0.024,4.224,0.005,6.334,0.005
		c8.935,0,17.867-0.033,26.801,0.009c7.604,0.035,12.923-3.612,16.543-10.071c1.615-2.883,2.438-6.043,2.695-9.29
		c0.492-6.223-1.025-11.947-5-16.848C534.049,53.676,529.577,51.343,523.99,51.356z M530.283,77.587
		c-1.195,2.142-3.093,3.298-5.482,3.592c-1.122,0.138-2.271,0.082-3.406,0.084c-5.197,0.006-10.392,0.002-15.589,0.002
		c-5.196,0-10.392,0.008-15.588-0.006c-0.972-0.002-1.954-0.008-2.912-0.158c-0.419-0.063-0.943-0.369-0.95-0.959
		c-0.038-2.915-0.238-5.843-0.036-8.743c0.296-4.22,3.476-7.06,7.774-7.197c2.433-0.078,4.869-0.02,7.305-0.02
		c6.496-0.001,12.991-0.002,19.487,0c1.136,0,2.275-0.039,3.408,0.035c2.816,0.185,4.945,1.535,6.207,4.056
		C532.064,71.391,531.988,74.531,530.283,77.587z"/>
	<path fill="#333333" d="M621.668,66.153c-1.004-3.476-2.735-6.593-5.309-9.191c-2.708-2.735-5.902-4.566-9.765-5.045
		c-1.447-0.18-2.913-0.285-4.369-0.288c-11.379-0.023-22.757-0.015-34.135-0.008c-0.973,0-1.957-0.028-2.918,0.102
		c-2.479,0.339-4.129,1.691-4.919,4.117c-0.514,1.585-0.497,3.199-0.497,4.823c-0.002,8.127,0,16.253-0.002,24.38
		c0,7.967,0,15.93,0.002,23.896c0,1.138-0.077,2.283,0.042,3.408c0.121,1.122,0.309,2.273,0.712,3.315
		c0.76,1.958,2.247,3.203,4.375,3.4c2.146,0.196,3.773-0.838,4.886-2.611c0.694-1.107,1.094-2.363,1.135-3.689
		c0.042-1.299,0.038-2.599,0.039-3.899c0.002-12.841,0-25.684,0.003-38.524c0-1.299,0.011-2.6,0.045-3.899
		c0.024-0.956,0.572-1.557,1.413-1.605c0.486-0.027,0.972-0.064,1.46-0.064c9.59-0.006,19.18-0.008,28.769-0.003
		c0.813,0,1.624,0.049,2.437,0.076c1.363,0.045,2.51,0.628,3.532,1.472c1.281,1.059,2.178,2.381,2.657,3.994
		c0.467,1.578,0.599,3.18,0.595,4.816c-0.021,6.013-0.009,12.028-0.009,18.043c0,5.851-0.024,11.704,0.018,17.553
		c0.01,1.456,0.092,2.936,0.382,4.352c0.434,2.103,2.36,3.718,4.436,3.989c2.013,0.261,4.152-0.95,5.16-2.949
		c0.672-1.329,0.936-2.738,0.935-4.235c-0.022-12.84-0.028-25.682-0.003-38.522C622.779,70.888,622.343,68.486,621.668,66.153z"/>
	<path fill="#333333" d="M347.837,74.722c0-1.461,0.024-2.936-0.142-4.384c-0.587-5.158-2.561-9.712-6.231-13.446
		c-2.7-2.747-5.933-4.514-9.79-4.999c-1.287-0.162-2.589-0.262-3.885-0.264c-11.704-0.02-23.408-0.014-35.111-0.008
		c-0.812,0-1.631,0.004-2.431,0.112c-2.734,0.368-4.75,2.408-5.026,5.166c-0.145,1.45-0.141,2.92-0.142,4.382
		c-0.012,8.127-0.006,16.256-0.006,24.383c0,7.964-0.007,15.929,0.006,23.893c0.002,1.463,0.051,2.927,0.13,4.384
		c0.074,1.357,0.707,2.506,1.589,3.482c1.846,2.043,4.956,2.247,6.992,0.378c1.374-1.262,2.182-2.813,2.214-4.713
		c0.023-1.298,0.034-2.599,0.034-3.898c0.003-12.844,0-25.683,0.004-38.526c0.001-1.461,0.028-2.925,0.065-4.387
		c0.021-0.817,0.701-1.445,1.582-1.472c0.975-0.032,1.95-0.04,2.926-0.041c8.778-0.003,17.555-0.003,26.333,0
		c0.975,0,1.95,0.021,2.925,0.047c2.296,0.058,4.015,1.183,5.315,2.988c1.062,1.479,1.711,3.134,1.755,4.98
		c0.033,1.3,0.03,2.6,0.03,3.901c0.003,10.892-0.001,21.781,0.005,32.673c0,1.299,0.016,2.6,0.051,3.901
		c0.041,1.521,0.66,2.831,1.584,4.006c1.365,1.739,3.731,2.119,5.263,1.589c2.246-0.78,3.415-2.43,3.798-4.639
		c0.22-1.27,0.163-2.593,0.164-3.892C347.846,98.455,347.846,86.588,347.837,74.722z"/>
	<path fill="#333333" d="M425.407,51.246c-2.54-0.369-4.241,0.501-5.564,2.949c-0.694,1.283-1.288,2.62-1.913,3.94
		c-6.462,13.634-12.919,27.271-19.385,40.905c-0.694,1.462-1.439,2.903-2.165,4.35c-0.191,0.378-0.894,0.349-1.122-0.05
		c-0.399-0.7-0.818-1.39-1.163-2.119c-3.759-7.913-7.504-15.833-11.251-23.752c-3.33-7.04-6.651-14.083-9.995-21.117
		c-0.485-1.023-0.999-2.045-1.625-2.985c-1.928-2.904-6.582-3.149-8.535,0.293c-1.276,2.248-1.608,4.572-0.491,6.989
		c0.882,1.914,1.761,3.831,2.667,5.734c7.603,15.967,15.275,31.9,22.772,47.915c1.673,3.577,4.011,5.386,6.879,5.001
		c2.23-0.098,3.369-0.09,4.498-0.21c1.715-0.186,3.085-1.057,3.978-2.51c0.762-1.24,1.392-2.567,2.01-3.886
		c7.709-16.455,15.404-32.914,23.106-49.371c0.413-0.881,0.883-1.738,1.25-2.637c0.627-1.542,0.736-3.144,0.438-4.783
		C429.365,53.545,427.501,51.55,425.407,51.246z"/>
	<path fill="#333333" d="M667.535,106.114c-2.112-0.053-4.227-0.009-6.34-0.015c-1.139-0.004-2.274-0.025-3.413-0.027
		c-2.11,0-3.734-0.982-5.047-2.543c-0.734-0.872-1.306-1.843-1.619-2.969c-0.393-1.421-0.594-2.853-0.591-4.33
		c0.016-9.753,0.008-19.507,0.021-29.258c0-0.482,0.004-1.017,0.206-1.429c0.19-0.384,0.602-0.818,0.991-0.912
		c0.777-0.185,1.607-0.198,2.415-0.202c3.899-0.017,7.801,0.004,11.703-0.017c1.133-0.007,2.272-0.057,3.403-0.172
		c1.554-0.156,2.71-0.997,3.568-2.279c1.467-2.195,1.47-5.647,0.026-7.856c-0.952-1.452-2.308-2.282-3.99-2.517
		c-0.959-0.134-1.946-0.099-2.919-0.103c-3.901-0.01-7.803,0.003-11.704-0.01c-0.808-0.003-1.617-0.059-2.427-0.114
		c-0.611-0.042-1.176-0.652-1.208-1.301c-0.039-0.81-0.072-1.623-0.073-2.435c-0.01-3.414,0.008-6.827-0.014-10.24
		c-0.007-1.136-0.063-2.273-0.153-3.406c-0.12-1.535-0.884-2.762-1.971-3.807c-2.107-2.029-5.54-1.781-7.316,0.549
		c-0.904,1.185-1.475,2.524-1.519,4.036c-0.039,1.3-0.039,2.6-0.039,3.901c-0.003,9.428-0.002,18.855-0.002,28.284
		c0,9.102,0,18.206,0.001,27.308c0,1.139,0.041,2.278-0.002,3.416c-0.093,2.473,0.414,4.867,1.112,7.199
		c1.088,3.631,2.938,6.862,5.727,9.49c2.673,2.517,5.764,4.206,9.469,4.596c4.375,0.464,8.761,0.281,13.145,0.138
		c0.161-0.004,0.319-0.061,0.479-0.089c1.91-0.364,3.272-1.49,3.978-3.24c0.416-1.029,0.665-2.208,0.65-3.315
		C674.025,108.633,671.471,106.205,667.535,106.114z"/>
	<path fill="#333333" d="M454.818,53.111c-1.596-1.416-3.425-1.795-5.417-0.89c-1.739,0.791-2.88,2.143-3.185,4.02
		c-0.232,1.433-0.276,2.909-0.28,4.366c-0.025,8.288-0.013,16.573-0.013,24.862c0,7.799-0.002,15.599,0.002,23.398
		c0,1.299-0.022,2.602,0.046,3.899c0.043,0.805,0.122,1.64,0.379,2.396c0.666,1.962,1.93,3.349,4.058,3.793
		c2.146,0.445,3.832-0.315,5.135-1.99c0.808-1.041,1.383-2.205,1.427-3.557c0.037-1.139,0.062-2.274,0.062-3.411
		c0.005-16.413,0.005-32.823,0-49.234c0-1.138,0.011-2.278-0.07-3.411C456.839,55.654,456.075,54.227,454.818,53.111z"/>
	<path fill="#333333" d="M451.865,28.742c-3.079-0.131-5.927,2.151-5.917,5.616c0.007,3.141,2.339,5.5,5.479,5.544
		c3.131,0.043,5.525-2.275,5.688-5.349C457.285,31.341,454.478,28.854,451.865,28.742z"/>
	<path fill="#659A41" d="M133.39,40.345c-5.937-3.698-12.427-5.975-19.345-6.996c-1.41-0.209-2.45-0.831-3.17-2.006
		c-1.369-2.232-2.491-4.599-3.046-7.152c-1.014-4.675-0.438-9.064,2.807-12.842c0.339-0.395,0.687-0.785,0.996-1.202
		c0.8-1.081,1.187-2.329,1.218-3.648c0.099-4.275-4.284-7.51-8.364-6.208c-4.44,1.417-6.042,6.33-3.274,10.065
		c0.309,0.418,0.682,0.787,1.016,1.188c3.071,3.697,3.693,7.943,2.694,12.494c-0.56,2.557-1.68,4.914-2.972,7.188
		c-0.687,1.208-1.631,1.909-3.076,2.104c-1.932,0.261-3.864,0.63-5.749,1.127c-9.831,2.597-18.211,7.633-25.136,15.067
		c-0.888,0.953-1.741,1.941-2.667,2.854c-1.095,1.079-2.448,1.488-3.958,1.149c-2.16-0.483-4.335-0.938-6.457-1.563
		c-4.768-1.405-9.323-3.297-13.515-6.022c-3.612-2.348-6.236-5.5-7.994-9.382c-0.478-1.056-0.732-2.216-1.074-3.332
		c-1.686-5.498-7.281-8.473-12.657-6.975c-5.332,1.486-7.837,6.573-7.475,10.622c0.545,6.094,6.053,10.27,12.134,9.242
		c1.027-0.174,2.058-0.331,3.09-0.49c4.67-0.72,9.052,0.079,13.243,2.277c6.578,3.452,11.949,8.316,16.732,13.902
		c0.846,0.988,0.949,2.114,0.591,3.298c-0.265,0.87-0.626,1.709-0.918,2.571c-3.704,10.95-3.84,21.944-0.394,32.98
		c0.272,0.868,0.578,1.725,0.848,2.593c0.592,1.895,0.265,3.538-1.155,5.025c-3.431,3.586-7.035,6.971-11.07,9.879
		c-2.969,2.139-6.102,4.003-9.459,5.469c-2.396,1.047-4.883,1.753-7.511,2.039c-3.674,0.4-7.265,0.246-10.849-0.723
		c-2.818-0.764-5.656-0.764-8.473,0.228c-5.143,1.809-9.505,7.059-8.95,14.067c0.615,7.765,8.693,14.588,18.034,11.425
		c4.075-1.38,6.837-4.181,8.285-8.237c0.218-0.61,0.37-1.244,0.57-1.861c2.02-6.263,5.574-11.417,11.025-15.21
		c2.036-1.417,4.171-2.662,6.39-3.771c5.514-2.754,11.351-4.549,17.348-5.889c1.286-0.287,2.34,0.138,3.234,0.937
		c0.773,0.689,1.406,1.534,2.096,2.314c3.739,4.231,8.015,7.818,12.912,10.652c0.448,0.259,0.92,0.48,1.387,0.705
		c0.517,0.252,1.117-0.068,1.118-0.614c0.015-5.986,0.018-11.971,0.037-17.958c0.002-0.826-0.268-1.492-0.857-2.089
		c-1.557-1.577-3.064-3.201-4.206-5.119c-0.204-0.342-0.114-0.741,0.254-0.979c0.655-0.424,1.304-0.859,1.981-1.246
		c7.116-4.09,14.296-8.078,21.335-12.296c3.65-2.187,6.962-2.208,10.614-0.019c6.928,4.152,14.002,8.062,20.985,12.123
		c3.73,2.169,3.826,1.472,0.878,5.156c-0.731,0.914-1.557,1.754-2.384,2.584c-0.597,0.6-0.819,1.293-0.817,2.11
		c0.008,2.862,0.004,5.725,0.004,8.59c-0.002,0-0.005,0-0.009,0c0,2.212-0.001,4.424,0.001,6.637
		c0.001,0.781,0.006,1.561,0.026,2.342c0.02,0.728,0.665,1.012,1.406,0.623c0.345-0.18,0.684-0.373,1.021-0.571
		c18.522-10.832,29.164-32.371,24.766-54.7C154.541,59.938,146.352,48.416,133.39,40.345z M139.011,98.146
		c-0.149,0.358-0.319,0.708-0.491,1.056c-0.24,0.491-0.863,0.749-1.293,0.519c-1.03-0.554-2.063-1.106-3.077-1.689
		c-6.774-3.889-13.59-7.71-20.3-11.704c-5.099-3.034-9.998-3.027-15.1,0.007c-7.047,4.192-14.203,8.202-21.318,12.281
		c-0.674,0.387-1.372,0.736-2.087,1.037c-0.172,0.072-0.55-0.043-0.67-0.197c-0.312-0.403-0.587-0.852-0.782-1.321
		c-1.82-4.389-2.618-8.462-2.635-13.293c-0.191-15.431,10.047-29.821,25.938-34.036c20.519-5.443,38.96,7.483,43.376,25.183
		C142.461,83.546,141.97,90.932,139.011,98.146z"/>
	<path fill="#659A41" d="M102.627,123.54c-3.23-0.02-6.461-0.027-9.692-0.019c-0.477,0.002-0.98,0.528-0.981,1.014
		c-0.022,3.096-0.035,6.192-0.033,9.286c0,0.753,0.453,1.252,1.146,1.262c1.551,0.023,3.104,0.008,4.654,0.008
		c0,0.012,0,0.026,0,0.038c1.424,0,2.849,0.019,4.271-0.006c1.164-0.02,1.631-0.482,1.631-1.631
		c0.002-2.968-0.019-5.935-0.045-8.902C103.574,124.098,103.085,123.543,102.627,123.54z"/>
	<path fill="#659A41" d="M102.627,106.908c-3.23-0.019-6.461-0.025-9.692-0.017c-0.477,0.002-0.98,0.527-0.981,1.014
		c-0.022,3.096-0.035,6.19-0.033,9.286c0,0.753,0.453,1.252,1.146,1.262c1.551,0.023,3.104,0.008,4.654,0.008
		c0,0.012,0,0.025,0,0.037c1.424,0,2.849,0.02,4.271-0.005c1.164-0.021,1.631-0.481,1.631-1.631
		c0.002-2.967-0.019-5.934-0.045-8.902C103.574,107.466,103.085,106.912,102.627,106.908z"/>
	<path fill="#659A41" d="M119.84,106.908c-3.231-0.019-6.46-0.025-9.692-0.017c-0.478,0.002-0.98,0.527-0.983,1.014
		c-0.022,3.096-0.034,6.19-0.032,9.286c0,0.753,0.453,1.252,1.146,1.262c1.552,0.023,3.104,0.008,4.654,0.008
		c0,0.012,0,0.025,0,0.037c1.424,0,2.848,0.02,4.271-0.005c1.164-0.021,1.632-0.481,1.632-1.631c0.002-2.967-0.02-5.934-0.045-8.902
		C120.787,107.466,120.298,106.912,119.84,106.908z"/>
	<path fill="#659A41" d="M119.84,123.54c-3.231-0.02-6.46-0.027-9.692-0.019c-0.478,0.002-0.98,0.528-0.983,1.014
		c-0.022,3.096-0.034,6.192-0.032,9.286c0,0.753,0.453,1.252,1.146,1.262c1.552,0.023,3.104,0.008,4.654,0.008
		c0,0.012,0,0.026,0,0.038c1.424,0,2.848,0.019,4.271-0.006c1.164-0.02,1.632-0.482,1.632-1.631c0.002-2.968-0.02-5.935-0.045-8.902
		C120.787,124.098,120.298,123.543,119.84,123.54z"/>
</g>
<text transform="matrix(1 0 0 1 757.0634 37.5258)" fill="#333333" font-family="'Myriad-Bold'" font-size="13.1337px">TM</text>
</svg>
